MovieLens Recommender System
…
  return(Metrics::rmse(predicted_ratings, test_set$rating))
}

The next step would be to make use of the recently created function to iterate through the penalty values. To do so, sapply() iterates through the elements of an array applying a supplied function to each (beware the computing time). Holding each returned value in a vector is recommended to evaluate the results and plot them if needed.

# The regularization function at play
lambdas <- seq(0, 10, 0.25)
lambdas_rmse <- sapply(lambdas,
                       regularization, 
                       train_set = train_set, 
                       test_set = test_set)
lambdas_tibble <- tibble(Lambda = lambdas, RMSE = lambdas_rmse)
print(lambdas_tibble)
## # A tibble: 41 x 2
##    Lambda  RMSE
##     <dbl> <dbl>
##  1   0    0.865
##  2   0.25 0.865
##  3   0.5  0.865
##  4   0.75 0.865
##  5   1    0.865
##  6   1.25 0.865
##  7   1.5  0.865
##  8   1.75 0.865
##  9   2    0.865
## 10   2.25 0.865
## # ... with 31 more rows
…
